{
	"Title":"SalaryGrade",
	"Table":"salarygrade",
	"File":"modelSalGrade",
	"Description":"",
	"Action":[true,true,true,false],
	"Label":["Code","Name","Remarks"],
	"Fields":["Code","Name","Remarks"]
}