{
	"Title":"PosClass",
	"Table":"positionclassification",
	"File":"modelPosClass",
	"Description":"",
	"Action":[true,true,true,false],
	"Label":["Code","Name","Remarks"],
	"Fields":["Code","Name","Remarks"]
}