{
	"Title":"CareerService",
	"Table":"career service",
	"File":"modelCareer",
	"Description":"",
	"Action":[true,true,true,false],
	"Label":["Code","Name","Remarks"],
	"Fields":["Code","Name","Remarks"]
}