04302018 11:15:01 AM->URL:/HRISDEV/hris/min/e2e/resources/views/pages/GlobalCaller.e2e.php?hSess=MTUyNTA1ODEwMTIwMTgwNDMwXzE1MjUwNTgxMDEyMDE4MDQzMF9heg==&hUser=admin&hUserRefId=46&hCompanyID=2&hBranchID=1&hsysgrp=1&hucode=SYSAD&hUserGroup=SYSAD&ccode=PCC&hEmpRefId=0&h=Secret&loginT=2018-04-30%2011:15:01%20AM&file=scrnWelcome&auth=init
04302018 11:15:51 AM->URL:/HRISDEV/hris/min/e2e/resources/views/pages/GlobalCaller.e2e.php?hSess=MTUyNTA1ODEwMTIwMTgwNDMwXzE1MjUwNTgxMDEyMDE4MDQzMF9heg==&hUser=admin&hUserRefId=46&hCompanyID=2&hBranchID=1&hsysgrp=1&hucode=SYSAD&hUserGroup=SYSAD&ccode=PCC&hEmpRefId=0&h=Secret&loginT=2018-04-30%2011:15:01%20AM&file=scrnMasterFile&paramTitle=MASTERFILE&auth=50fd63aeeb854d941de8688b75bedb95b6d453a2
04302018 11:16:03 AM->URL:/HRISDEV/hris/min/e2e/resources/views/pages/GlobalCaller.e2e.php?hSess=MTUyNTA1ODEwMTIwMTgwNDMwXzE1MjUwNTgxMDEyMDE4MDQzMF9heg==&hUser=admin&hUserRefId=46&hCompanyID=2&hBranchID=1&hsysgrp=1&hucode=SYSAD&hUserGroup=SYSAD&ccode=PCC&hEmpRefId=0&h=Secret&loginT=2018-04-30%2011:15:01%20AM&file=scrnMasterFile&paramTitle=MASTER%20FILE&hTable=&hGridTblHdr=&hGridTblFld=&auth=89382ffdb473af58b3d424f5ea63dc1457c63d46
04302018 11:16:12 AM->URL:/HRISDEV/hris/min/e2e/resources/views/pages/GlobalCaller.e2e.php?hSess=MTUyNTA1ODEwMTIwMTgwNDMwXzE1MjUwNTgxMDEyMDE4MDQzMF9heg==&hUser=admin&hUserRefId=46&hCompanyID=2&hBranchID=1&hsysgrp=1&hucode=SYSAD&hUserGroup=SYSAD&ccode=PCC&hEmpRefId=0&h=Secret&loginT=2018-04-30%2011:15:01%20AM&file=scrn201Update&paramTitle=201%20UPDATES&hTable=&hGridTblHdr=&hGridTblFld=&auth=b055578f3c13cd22df73e1a98870e5d93e00fda3
04302018 11:16:39 AM->URL:/HRISDEV/hris/min/e2e/resources/views/pages/GlobalCaller.e2e.php?hSess=MTUyNTA1ODEwMTIwMTgwNDMwXzE1MjUwNTgxMDEyMDE4MDQzMF9heg==&hUser=admin&hUserRefId=46&hCompanyID=2&hBranchID=1&hsysgrp=1&hucode=SYSAD&hUserGroup=SYSAD&ccode=PCC&hEmpRefId=0&h=Secret&loginT=2018-04-30%2011:15:01%20AM&file=scrnWelcome&paramTitle=&auth=998058a3f77fb60c6adc93773023f84cae5250c0
04302018 11:16:43 AM->URL:/HRISDEV/hris/min/e2e/resources/views/pages/GlobalCaller.e2e.php?hSess=MTUyNTA1ODEwMTIwMTgwNDMwXzE1MjUwNTgxMDEyMDE4MDQzMF9heg==&hUser=admin&hUserRefId=46&hCompanyID=2&hBranchID=1&hsysgrp=1&hucode=SYSAD&hUserGroup=SYSAD&ccode=PCC&hEmpRefId=0&h=Secret&loginT=2018-04-30%2011:15:01%20AM&file=amsTrnDTR&paramTitle=Daily%20Time%20Record&auth=0e14ca799c465d1e778262f433ebd42a1e1cb3cc
04302018 11:16:54 AM->URL:/HRISDEV/hris/min/e2e/resources/views/pages/GlobalCaller.e2e.php?hSess=MTUyNTA1ODEwMTIwMTgwNDMwXzE1MjUwNTgxMDEyMDE4MDQzMF9heg==&hUser=admin&hUserRefId=46&hCompanyID=2&hBranchID=1&hsysgrp=1&hucode=SYSAD&hUserGroup=SYSAD&ccode=PCC&hEmpRefId=0&h=Secret&loginT=2018-04-30%2011:15:01%20AM&file=scrnWelcome&paramTitle=&auth=b1da7efb5d59feda83cab1c89ada55fbc4d54058
04302018 11:16:57 AM->URL:/HRISDEV/hris/min/e2e/resources/views/pages/GlobalCaller.e2e.php?hSess=MTUyNTA1ODEwMTIwMTgwNDMwXzE1MjUwNTgxMDEyMDE4MDQzMF9heg==&hUser=admin&hUserRefId=46&hCompanyID=2&hBranchID=1&hsysgrp=1&hucode=SYSAD&hUserGroup=SYSAD&ccode=PCC&hEmpRefId=0&h=Secret&loginT=2018-04-30%2011:15:01%20AM&file=scrnMasterFile&paramTitle=MASTERFILE&auth=8522d6fea614ba24421d99e24e2151c65d6932ab
04302018 11:17:10 AM->URL:/HRISDEV/hris/min/e2e/resources/views/pages/GlobalCaller.e2e.php?hSess=MTUyNTA1ODEwMTIwMTgwNDMwXzE1MjUwNTgxMDEyMDE4MDQzMF9heg==&hUser=admin&hUserRefId=46&hCompanyID=2&hBranchID=1&hsysgrp=1&hucode=SYSAD&hUserGroup=SYSAD&ccode=PCC&hEmpRefId=0&h=Secret&loginT=2018-04-30%2011:15:01%20AM&file=scrnWelcome&paramTitle=&auth=284ef1793391670860a9ddc093fbdc424010f782
04302018 11:17:32 AM->URL:/HRISDEV/hris/min/e2e/resources/views/pages/GlobalCaller.e2e.php?hSess=MTUyNTA1ODEwMTIwMTgwNDMwXzE1MjUwNTgxMDEyMDE4MDQzMF9heg==&hUser=admin&hUserRefId=46&hCompanyID=2&hBranchID=1&hsysgrp=1&hucode=SYSAD&hUserGroup=SYSAD&ccode=PCC&hEmpRefId=0&h=Secret&loginT=2018-04-30%2011:15:01%20AM&file=pmsEmployee&paramTitle=EMPLOYEES&auth=7538c854a25930e62deaac4d2ef7d2763ba42fef
04302018 11:18:05 AM->URL:/HRISDEV/hris/min/e2e/resources/views/pages/GlobalCaller.e2e.php
04302018 11:34:59 AM->URL:/HRISDEV/hris/min/e2e/resources/views/pages/GlobalCaller.e2e.php
04302018 11:35:38 AM->URL:/HRISDEV/hris/min/e2e/resources/views/pages/GlobalCaller.e2e.php?hSess=MTUyNTA1OTMzODIwMTgwNDMwXzE1MjUwNTkzMzgyMDE4MDQzMF9heg==&hUser=admin&hUserRefId=46&hCompanyID=2&hBranchID=1&hsysgrp=1&hucode=SYSAD&hUserGroup=SYSAD&ccode=PCC&hEmpRefId=0&h=Secret&loginT=2018-04-30%2011:35:38%20AM&file=scrnWelcome&auth=init
04302018 11:35:54 AM->URL:/HRISDEV/hris/min/e2e/resources/views/pages/GlobalCaller.e2e.php?hSess=MTUyNTA1OTMzODIwMTgwNDMwXzE1MjUwNTkzMzgyMDE4MDQzMF9heg==&hUser=admin&hUserRefId=46&hCompanyID=2&hBranchID=1&hsysgrp=1&hucode=SYSAD&hUserGroup=SYSAD&ccode=PCC&hEmpRefId=0&h=Secret&loginT=2018-04-30%2011:35:38%20AM&file=pmsEmployee&paramTitle=EMPLOYEES&auth=919b5c7a0d272a80f8870434b6047198f6b0481b
04302018 11:36:37 AM->URL:/HRISDEV/hris/min/e2e/resources/views/pages/GlobalCaller.e2e.php
04302018 11:49:09 AM->URL:/HRISDEV/hris/min/e2e/resources/views/pages/GlobalCaller.e2e.php?hSess=MTUyNTA1OTMzODIwMTgwNDMwXzE1MjUwNTkzMzgyMDE4MDQzMF9heg==&hUser=admin&hUserRefId=46&hCompanyID=2&hBranchID=1&hsysgrp=1&hucode=SYSAD&hUserGroup=SYSAD&ccode=PCC&hEmpRefId=0&h=Secret&loginT=2018-04-30%2011:35:38%20AM&file=pmsEmployee&paramTitle=EMPLOYEES&auth=919b5c7a0d272a80f8870434b6047198f6b0481b
04302018 11:58:28 AM->URL:/HRISDEV/hris/min/e2e/resources/views/pages/GlobalCaller.e2e.php?hSess=MTUyNTA1OTMzODIwMTgwNDMwXzE1MjUwNTkzMzgyMDE4MDQzMF9heg==&hUser=admin&hUserRefId=46&hCompanyID=2&hBranchID=1&hsysgrp=1&hucode=SYSAD&hUserGroup=SYSAD&ccode=PCC&hEmpRefId=0&h=Secret&loginT=2018-04-30%2011:35:38%20AM&file=scrnWelcome&paramTitle=&auth=b7dc46884c610365b23e817bc949da767e4a37c2
04302018 11:58:39 AM->URL:/HRISDEV/hris/min/e2e/resources/views/pages/GlobalCaller.e2e.php?hSess=MTUyNTA1OTMzODIwMTgwNDMwXzE1MjUwNTkzMzgyMDE4MDQzMF9heg==&hUser=admin&hUserRefId=46&hCompanyID=2&hBranchID=1&hsysgrp=1&hucode=SYSAD&hUserGroup=SYSAD&ccode=PCC&hEmpRefId=0&h=Secret&loginT=2018-04-30%2011:35:38%20AM&file=amsTrnDTR&paramTitle=Daily%20Time%20Record&auth=133d318399bd301e57707e64541324afe74bba09
04302018 11:58:58 AM->URL:/HRISDEV/hris/min/e2e/resources/views/pages/GlobalCaller.e2e.php?hSess=MTUyNTA1OTMzODIwMTgwNDMwXzE1MjUwNTkzMzgyMDE4MDQzMF9heg==&hUser=admin&hUserRefId=46&hCompanyID=2&hBranchID=1&hsysgrp=1&hucode=SYSAD&hUserGroup=SYSAD&ccode=PCC&hEmpRefId=0&h=Secret&loginT=2018-04-30%2011:35:38%20AM&file=amsPolicy&id=amsPolc&auth=8749274554b7efd4300adbd5e9faec8a9fbfc1d4
04302018 11:59:57 AM->URL:/HRISDEV/hris/min/e2e/resources/views/pages/GlobalCaller.e2e.php?hSess=MTUyNTA1OTMzODIwMTgwNDMwXzE1MjUwNTkzMzgyMDE4MDQzMF9heg==&hUser=admin&hUserRefId=46&hCompanyID=2&hBranchID=1&hsysgrp=1&hucode=SYSAD&hUserGroup=SYSAD&ccode=PCC&hEmpRefId=0&h=Secret&loginT=2018-04-30%2011:35:38%20AM&file=amsFileSetup&id=amsFile&auth=11cd9a1bd4485fb14d842787d370e412b9ab7f51
04302018 12:00:00 PM->URL:/HRISDEV/hris/min/e2e/resources/views/pages/GlobalCaller.e2e.php?hSess=MTUyNTA1OTMzODIwMTgwNDMwXzE1MjUwNTkzMzgyMDE4MDQzMF9heg==&hUser=admin&hUserRefId=46&hCompanyID=2&hBranchID=1&hsysgrp=1&hucode=SYSAD&hUserGroup=SYSAD&ccode=PCC&hEmpRefId=0&h=Secret&loginT=2018-04-30%2011:35:38%20AM&file=amsFileSetup&id=mTable1&auth=2a036c32bbaa7165193c60ad1ae6ee86e30262f1
04302018 12:00:11 PM->URL:/HRISDEV/hris/min/e2e/resources/views/pages/GlobalCaller.e2e.php?hSess=MTUyNTA1OTMzODIwMTgwNDMwXzE1MjUwNTkzMzgyMDE4MDQzMF9heg==&hUser=admin&hUserRefId=46&hCompanyID=2&hBranchID=1&hsysgrp=1&hucode=SYSAD&hUserGroup=SYSAD&ccode=PCC&hEmpRefId=0&h=Secret&loginT=2018-04-30%2011:35:38%20AM&file=amsFileSetup&id=mTable2&auth=fad63cc18b025e41bdb155d5794f28c7b48b3fe9
04302018 12:02:05 PM->URL:/HRISDEV/hris/min/e2e/resources/views/pages/GlobalCaller.e2e.php?hSess=MTUyNTA1OTMzODIwMTgwNDMwXzE1MjUwNTkzMzgyMDE4MDQzMF9heg==&hUser=admin&hUserRefId=46&hCompanyID=2&hBranchID=1&hsysgrp=1&hucode=SYSAD&hUserGroup=SYSAD&ccode=PCC&hEmpRefId=0&h=Secret&loginT=2018-04-30%2011:35:38%20AM&file=amsEmployee&id=amsEmpl&auth=444559c9e6fe4c7d8bbf9ef37de068113188bf64
04302018 12:03:11 PM->URL:/HRISDEV/hris/min/e2e/resources/views/pages/GlobalCaller.e2e.php?hSess=MTUyNTA1OTMzODIwMTgwNDMwXzE1MjUwNTkzMzgyMDE4MDQzMF9heg==&hUser=admin&hUserRefId=46&hCompanyID=2&hBranchID=1&hsysgrp=1&hucode=SYSAD&hUserGroup=SYSAD&ccode=PCC&hEmpRefId=0&h=Secret&loginT=2018-04-30%2011:35:38%20AM&file=amsTrnDTR&id=amsDTR&auth=8251ddf2dade69b3aff06e63579f07a952cba471
04302018 12:03:36 PM->URL:/HRISDEV/hris/min/e2e/resources/views/pages/GlobalCaller.e2e.php?hSess=MTUyNTA1OTMzODIwMTgwNDMwXzE1MjUwNTkzMzgyMDE4MDQzMF9heg==&hUser=admin&hUserRefId=46&hCompanyID=2&hBranchID=1&hsysgrp=1&hucode=SYSAD&hUserGroup=SYSAD&ccode=PCC&hEmpRefId=0&h=Secret&loginT=2018-04-30%2011:35:38%20AM&file=amsReport&id=amsRpts&auth=9039de42acde3add327dc5d3cb48f155a3432803
04302018 02:48:55 PM->URL:/HRISDEV/hris/min/e2e/resources/views/pages/GlobalCaller.e2e.php?hSess=MTUyNTA3MDkzNTIwMTgwNDMwXzE1MjUwNzA5MzUyMDE4MDQzMF9heg==&hUser=admin&hUserRefId=46&hCompanyID=2&hBranchID=1&hsysgrp=1&hucode=SYSAD&hUserGroup=SYSAD&ccode=PCC&hEmpRefId=0&h=Secret&loginT=2018-04-30%2002:48:55%20PM&file=scrnWelcome&auth=init
04302018 02:48:58 PM->URL:/HRISDEV/hris/min/e2e/resources/views/pages/GlobalCaller.e2e.php?hSess=MTUyNTA3MDkzNTIwMTgwNDMwXzE1MjUwNzA5MzUyMDE4MDQzMF9heg==&hUser=admin&hUserRefId=46&hCompanyID=2&hBranchID=1&hsysgrp=1&hucode=SYSAD&hUserGroup=SYSAD&ccode=PCC&hEmpRefId=0&h=Secret&loginT=2018-04-30%2002:48:55%20PM&file=scrnMasterFile&paramTitle=MASTERFILE&auth=fdaa93a0e6a194565a5eda386a1fb3320468f8cc
04302018 02:49:01 PM->URL:/HRISDEV/hris/min/e2e/resources/views/pages/GlobalCaller.e2e.php?hSess=MTUyNTA3MDkzNTIwMTgwNDMwXzE1MjUwNzA5MzUyMDE4MDQzMF9heg==&hUser=admin&hUserRefId=46&hCompanyID=2&hBranchID=1&hsysgrp=1&hucode=SYSAD&hUserGroup=SYSAD&ccode=PCC&hEmpRefId=0&h=Secret&loginT=2018-04-30%2002:48:55%20PM&file=scrnFileManager&paramTitle=FILE%20MANAGER&fmMenu=Close&hTable=&hGridTblHdr=&hGridTblFld=&auth=ceeb603a64fbdd2466c369184595eebc68a05557
04302018 02:49:04 PM->URL:/HRISDEV/hris/min/e2e/resources/views/pages/GlobalCaller.e2e.php?hSess=MTUyNTA3MDkzNTIwMTgwNDMwXzE1MjUwNzA5MzUyMDE4MDQzMF9heg==&hUser=admin&hUserRefId=46&hCompanyID=2&hBranchID=1&hsysgrp=1&hucode=SYSAD&hUserGroup=SYSAD&ccode=PCC&hEmpRefId=0&h=Secret&loginT=2018-04-30%2002:48:55%20PM&file=DataManager&n=salary%20grade&hTable=salarygrade&hmode=List&hSysData=DataLibrary&hChildFile=modelSalaryGrade&hGridTblHdr=Name|Step%201|Step%202|Step%203|Step%204|Step%205|Step%206|Step%207|Step%208&hGridTblFld=Name|Step1|Step2|Step3|Step4|Step5|Step6|Step7|Step8&hModel=modelSalaryGrade&auth=dd38a81415b431f5d4055f7dab21408862f205de
04302018 02:49:52 PM->URL:/HRISDEV/hris/min/e2e/resources/views/pages/GlobalCaller.e2e.php?hSess=MTUyNTA3MDkzNTIwMTgwNDMwXzE1MjUwNzA5MzUyMDE4MDQzMF9heg==&hUser=admin&hUserRefId=46&hCompanyID=2&hBranchID=1&hsysgrp=1&hucode=SYSAD&hUserGroup=SYSAD&ccode=PCC&hEmpRefId=0&h=Secret&loginT=2018-04-30%2002:48:55%20PM&file=scrnAccountability&paramTitle=ACCOUNTABILITY&hTable=accountability&hGridTblHdr=Employees%20Name|Custodian%20Name|Accountability%20Name|Remarks&hGridTblFld=EmployeesRefId|CustodianRefId|AccountabilityName|Remarks&auth=3517347a75ac08f2fb766c360a3530db151a2800
04302018 02:49:54 PM->URL:/HRISDEV/hris/min/e2e/resources/views/pages/GlobalCaller.e2e.php?hSess=MTUyNTA3MDkzNTIwMTgwNDMwXzE1MjUwNzA5MzUyMDE4MDQzMF9heg==&hUser=admin&hUserRefId=46&hCompanyID=2&hBranchID=1&hsysgrp=1&hucode=SYSAD&hUserGroup=SYSAD&ccode=PCC&hEmpRefId=0&h=Secret&loginT=2018-04-30%2002:48:55%20PM&file=scrnID%20&paramTitle=ID&auth=99300b1344acf86b5f6f3cbf6b61995e936cc755
04302018 02:49:55 PM->URL:/HRISDEV/hris/min/e2e/resources/views/pages/GlobalCaller.e2e.php?hSess=MTUyNTA3MDkzNTIwMTgwNDMwXzE1MjUwNzA5MzUyMDE4MDQzMF9heg==&hUser=admin&hUserRefId=46&hCompanyID=2&hBranchID=1&hsysgrp=1&hucode=SYSAD&hUserGroup=SYSAD&ccode=PCC&hEmpRefId=0&h=Secret&loginT=2018-04-30%2002:48:55%20PM&file=scrnFileManager&paramTitle=FILE%20MANAGER&fmMenu=Close&hTable=&hGridTblHdr=&hGridTblFld=&auth=d861878a24f82d13e64b3645e18621733aad9676
04302018 02:49:56 PM->URL:/HRISDEV/hris/min/e2e/resources/views/pages/GlobalCaller.e2e.php?hSess=MTUyNTA3MDkzNTIwMTgwNDMwXzE1MjUwNzA5MzUyMDE4MDQzMF9heg==&hUser=admin&hUserRefId=46&hCompanyID=2&hBranchID=1&hsysgrp=1&hucode=SYSAD&hUserGroup=SYSAD&ccode=PCC&hEmpRefId=0&h=Secret&loginT=2018-04-30%2002:48:55%20PM&file=scrnEmpAttach&paramTitle=EMPLOYEES%20ATTACHMENT&auth=5682263d75627b882858d840cdeef5c0e5603ff7
04302018 02:49:57 PM->URL:/HRISDEV/hris/min/e2e/resources/views/pages/GlobalCaller.e2e.php?hSess=MTUyNTA3MDkzNTIwMTgwNDMwXzE1MjUwNzA5MzUyMDE4MDQzMF9heg==&hUser=admin&hUserRefId=46&hCompanyID=2&hBranchID=1&hsysgrp=1&hucode=SYSAD&hUserGroup=SYSAD&ccode=PCC&hEmpRefId=0&h=Secret&loginT=2018-04-30%2002:48:55%20PM&file=scrnReports&paramTitle=Reports&hRptScrn=&auth=f7f70a8a2572643daec77470daf9596377569158
04302018 02:49:58 PM->URL:/HRISDEV/hris/min/e2e/resources/views/pages/GlobalCaller.e2e.php?hSess=MTUyNTA3MDkzNTIwMTgwNDMwXzE1MjUwNzA5MzUyMDE4MDQzMF9heg==&hUser=admin&hUserRefId=46&hCompanyID=2&hBranchID=1&hsysgrp=1&hucode=SYSAD&hUserGroup=SYSAD&ccode=PCC&hEmpRefId=0&h=Secret&loginT=2018-04-30%2002:48:55%20PM&file=scrnEmployeeInformation&paramTitle=EMPLOYMENT%20INFORMATION&hTable=employees&hGridTblHdr=Last%20Name|First%20Name&hGridTblFld=LastName|FirstName&auth=671a2e5d2eb5e85c11fc9b242df4c9f6b286acdb
04302018 02:50:07 PM->URL:/HRISDEV/hris/min/e2e/resources/views/pages/GlobalCaller.e2e.php?hSess=MTUyNTA3MDkzNTIwMTgwNDMwXzE1MjUwNzA5MzUyMDE4MDQzMF9heg==&hUser=admin&hUserRefId=46&hCompanyID=2&hBranchID=1&hsysgrp=1&hucode=SYSAD&hUserGroup=SYSAD&ccode=PCC&hEmpRefId=0&h=Secret&loginT=2018-04-30%2002:48:55%20PM&file=scrnEmpMovement&paramTitle=EMPLOYEES%20MOVEMENT&hTable=employeesmovement&hGridTblHdr=&hGridTblFld=&auth=46d93bdd98e064a865aeeea829e0eb6ceb0d7491
04302018 02:50:09 PM->URL:/HRISDEV/hris/min/e2e/resources/views/pages/GlobalCaller.e2e.php?hSess=MTUyNTA3MDkzNTIwMTgwNDMwXzE1MjUwNzA5MzUyMDE4MDQzMF9heg==&hUser=admin&hUserRefId=46&hCompanyID=2&hBranchID=1&hsysgrp=1&hucode=SYSAD&hUserGroup=SYSAD&ccode=PCC&hEmpRefId=0&h=Secret&loginT=2018-04-30%2002:48:55%20PM&file=scrn201File&paramTitle=201%20File&hTable=employees&hGridTblHdr=Last%20Name|First%20Name|Contact%20No|Birth%20Date|Civil%20Status&hGridTblFld=LastName|FirstName|ContactNo|BirthDate|CivilStatus&auth=18ab933214fa7ed29729d2657ad68356afc652b3
04302018 02:50:11 PM->URL:/HRISDEV/hris/min/e2e/resources/views/pages/GlobalCaller.e2e.php?hSess=MTUyNTA3MDkzNTIwMTgwNDMwXzE1MjUwNzA5MzUyMDE4MDQzMF9heg==&hUser=admin&hUserRefId=46&hCompanyID=2&hBranchID=1&hsysgrp=1&hucode=SYSAD&hUserGroup=SYSAD&ccode=PCC&hEmpRefId=0&h=Secret&loginT=2018-04-30%2002:48:55%20PM&file=scrnEmpMovement&paramTitle=EMPLOYEES%20MOVEMENT&hTable=employeesmovement&hGridTblHdr=&hGridTblFld=&auth=47ff14803c276f463587546dc83bca2163eea8f7
04302018 02:50:14 PM->URL:/HRISDEV/hris/min/e2e/resources/views/pages/GlobalCaller.e2e.php?hSess=MTUyNTA3MDkzNTIwMTgwNDMwXzE1MjUwNzA5MzUyMDE4MDQzMF9heg==&hUser=admin&hUserRefId=46&hCompanyID=2&hBranchID=1&hsysgrp=1&hucode=SYSAD&hUserGroup=SYSAD&ccode=PCC&hEmpRefId=0&h=Secret&loginT=2018-04-30%2002:48:55%20PM&file=scrn201File&paramTitle=201%20File&hTable=employees&hGridTblHdr=Last%20Name|First%20Name|Contact%20No|Birth%20Date|Civil%20Status&hGridTblFld=LastName|FirstName|ContactNo|BirthDate|CivilStatus&auth=2efd0f7d9282d3b128fb2fdee49c44a5227faa52
04302018 02:50:16 PM->URL:/HRISDEV/hris/min/e2e/resources/views/pages/GlobalCaller.e2e.php?hSess=MTUyNTA3MDkzNTIwMTgwNDMwXzE1MjUwNzA5MzUyMDE4MDQzMF9heg==&hUser=admin&hUserRefId=46&hCompanyID=2&hBranchID=1&hsysgrp=1&hucode=SYSAD&hUserGroup=SYSAD&ccode=PCC&hEmpRefId=0&h=Secret&loginT=2018-04-30%2002:48:55%20PM&file=scrn201File&paramTitle=201%20File&hTable=employees&hGridTblHdr=Last%20Name|First%20Name|Contact%20No|Birth%20Date|Civil%20Status&hGridTblFld=LastName|FirstName|ContactNo|BirthDate|CivilStatus&auth=2a41bbdd8b3b4cc0a4d7cc76961b11f29cdb930c
04302018 02:50:17 PM->URL:/HRISDEV/hris/min/e2e/resources/views/pages/GlobalCaller.e2e.php?hSess=MTUyNTA3MDkzNTIwMTgwNDMwXzE1MjUwNzA5MzUyMDE4MDQzMF9heg==&hUser=admin&hUserRefId=46&hCompanyID=2&hBranchID=1&hsysgrp=1&hucode=SYSAD&hUserGroup=SYSAD&ccode=PCC&hEmpRefId=0&h=Secret&loginT=2018-04-30%2002:48:55%20PM&file=scrnMasterFile&paramTitle=MASTER%20FILE&hTable=&hGridTblHdr=&hGridTblFld=&auth=57f559834eed4ec66db097d062d7baa90330847e
04302018 02:50:18 PM->URL:/HRISDEV/hris/min/e2e/resources/views/pages/GlobalCaller.e2e.php?hSess=MTUyNTA3MDkzNTIwMTgwNDMwXzE1MjUwNzA5MzUyMDE4MDQzMF9heg==&hUser=admin&hUserRefId=46&hCompanyID=2&hBranchID=1&hsysgrp=1&hucode=SYSAD&hUserGroup=SYSAD&ccode=PCC&hEmpRefId=0&h=Secret&loginT=2018-04-30%2002:48:55%20PM&file=scrnRecogAndRewards&paramTitle=RECOGNITION%20AND%20REWARDS&hTable=recognitionan&hGridTblHdr=&hGridTblFld=&auth=f3a07e7d4a5a82b8e1633541e0aeb6e34265adf8
04302018 02:50:19 PM->URL:/HRISDEV/hris/min/e2e/resources/views/pages/GlobalCaller.e2e.php?hSess=MTUyNTA3MDkzNTIwMTgwNDMwXzE1MjUwNzA5MzUyMDE4MDQzMF9heg==&hUser=admin&hUserRefId=46&hCompanyID=2&hBranchID=1&hsysgrp=1&hucode=SYSAD&hUserGroup=SYSAD&ccode=PCC&hEmpRefId=0&h=Secret&loginT=2018-04-30%2002:48:55%20PM&file=scrnID%20&paramTitle=ID&auth=258c58585ea4c8094a5799d1d03535c997d07cb2
04302018 02:50:21 PM->URL:/HRISDEV/hris/min/e2e/resources/views/pages/GlobalCaller.e2e.php?hSess=MTUyNTA3MDkzNTIwMTgwNDMwXzE1MjUwNzA5MzUyMDE4MDQzMF9heg==&hUser=admin&hUserRefId=46&hCompanyID=2&hBranchID=1&hsysgrp=1&hucode=SYSAD&hUserGroup=SYSAD&ccode=PCC&hEmpRefId=0&h=Secret&loginT=2018-04-30%2002:48:55%20PM&file=scrnAccountability&paramTitle=ACCOUNTABILITY&hTable=accountability&hGridTblHdr=Employees%20Name|Custodian%20Name|Accountability%20Name|Remarks&hGridTblFld=EmployeesRefId|CustodianRefId|AccountabilityName|Remarks&auth=8165df0ca2219ead682cabcad7326c0e31d38e5c
04302018 02:50:27 PM->URL:/HRISDEV/hris/min/e2e/resources/views/pages/GlobalCaller.e2e.php?hSess=MTUyNTA3MDkzNTIwMTgwNDMwXzE1MjUwNzA5MzUyMDE4MDQzMF9heg==&hUser=admin&hUserRefId=46&hCompanyID=2&hBranchID=1&hsysgrp=1&hucode=SYSAD&hUserGroup=SYSAD&ccode=PCC&hEmpRefId=0&h=Secret&loginT=2018-04-30%2002:48:55%20PM&file=scrnUsers&id=mCreateUser&auth=90ccc10d7d0a5c2df4a740561e5f93504c0b5dac
04302018 02:50:36 PM->URL:/HRISDEV/hris/min/e2e/resources/views/pages/GlobalCaller.e2e.php?hSess=MTUyNTA3MDkzNTIwMTgwNDMwXzE1MjUwNzA5MzUyMDE4MDQzMF9heg==&hUser=admin&hUserRefId=46&hCompanyID=2&hBranchID=1&hsysgrp=1&hucode=SYSAD&hUserGroup=SYSAD&ccode=PCC&hEmpRefId=0&h=Secret&loginT=2018-04-30%2002:48:55%20PM&file=scrnWelcome&id=mExitModule&auth=69cc548adacbd871f5d34ccb96dc2fd0abe566b9
04302018 02:50:39 PM->URL:/HRISDEV/hris/min/e2e/resources/views/pages/GlobalCaller.e2e.php?hSess=MTUyNTA3MDkzNTIwMTgwNDMwXzE1MjUwNzA5MzUyMDE4MDQzMF9heg==&hUser=admin&hUserRefId=46&hCompanyID=2&hBranchID=1&hsysgrp=1&hucode=SYSAD&hUserGroup=SYSAD&ccode=PCC&hEmpRefId=0&h=Secret&loginT=2018-04-30%2002:48:55%20PM&file=amsTrnDTR&paramTitle=Daily%20Time%20Record&auth=fd1b8db7de209d4570abb5e98d63331d183713b1
04302018 02:50:44 PM->URL:/HRISDEV/hris/min/e2e/resources/views/pages/GlobalCaller.e2e.php?hSess=MTUyNTA3MDkzNTIwMTgwNDMwXzE1MjUwNzA5MzUyMDE4MDQzMF9heg==&hUser=admin&hUserRefId=46&hCompanyID=2&hBranchID=1&hsysgrp=1&hucode=SYSAD&hUserGroup=SYSAD&ccode=PCC&hEmpRefId=0&h=Secret&loginT=2018-04-30%2002:48:55%20PM&file=amsTrnDTR&id=amsDTR&auth=65f8b64ad59997e8f65cbaf56417e317fd9cd2aa
04302018 02:51:05 PM->URL:/HRISDEV/hris/min/e2e/resources/views/pages/GlobalCaller.e2e.php
04302018 02:51:12 PM->URL:/HRISDEV/hris/min/e2e/resources/views/pages/GlobalCaller.e2e.php
04302018 02:51:20 PM->URL:/HRISDEV/hris/min/e2e/resources/views/pages/GlobalCaller.e2e.php
04302018 02:51:26 PM->URL:/HRISDEV/hris/min/e2e/resources/views/pages/GlobalCaller.e2e.php
