04182018 10:04:41 AM->URL:/HRISDEV/hris/min/e2e/resources/views/pages/GlobalCaller.e2e.php?hSess=MTUyNDAxNzA4MTIwMTgwNDE4XzE1MjQwMTcwODEyMDE4MDQxOF9heg==&hUser=fhabellajr&hUserRefId=116&hCompanyID=2&hBranchID=1&hsysgrp=&hucode=COMPEMP&hUserGroup=COMPEMP&ccode=PCC&hEmpRefId=116&h=Secret&loginT=2018-04-18%2010:04:41%20AM&file=scrnWelcome&auth=init
04182018 10:04:43 AM->URL:/HRISDEV/hris/min/e2e/resources/views/pages/GlobalCaller.e2e.php?hSess=MTUyNDAxNzA4MTIwMTgwNDE4XzE1MjQwMTcwODEyMDE4MDQxOF9heg==&hUser=fhabellajr&hUserRefId=116&hCompanyID=2&hBranchID=1&hsysgrp=&hucode=COMPEMP&hUserGroup=COMPEMP&ccode=PCC&hEmpRefId=116&h=Secret&loginT=2018-04-18%2010:04:41%20AM&file=scrn201File&paramTitle=201%20File&hTable=Employees&auth=15c48ad234ec8eff24da7222aa938e4dc74d64a6
04182018 10:04:53 AM->URL:/HRISDEV/hris/min/e2e/resources/views/pages/GlobalCaller.e2e.php?hSess=MTUyNDAxNzA4MTIwMTgwNDE4XzE1MjQwMTcwODEyMDE4MDQxOF9heg==&hUser=fhabellajr&hUserRefId=116&hCompanyID=2&hBranchID=1&hsysgrp=&hucode=COMPEMP&hUserGroup=COMPEMP&ccode=PCC&hEmpRefId=116&h=Secret&loginT=2018-04-18%2010:04:41%20AM&file=scrnLogOut&id=mLogOut&auth=0f4d9ce66b6456a877afc2b17eee0fb21ca342c3
04182018 01:42:39 PM->URL:/HRISDEV/hris/min/e2e/resources/views/pages/GlobalCaller.e2e.php?hSess=MTUyNDAzMDE1OTIwMTgwNDE4XzE1MjQwMzAxNTkyMDE4MDQxOF9heg==&hUser=fhabellajr&hUserRefId=116&hCompanyID=2&hBranchID=1&hsysgrp=&hucode=COMPEMP&hUserGroup=COMPEMP&ccode=PCC&hEmpRefId=116&h=Secret&loginT=2018-04-18%2001:42:39%20PM&file=scrnWelcome&auth=init
04182018 01:45:17 PM->URL:/HRISDEV/hris/min/e2e/resources/views/pages/GlobalCaller.e2e.php?hSess=MTUyNDAzMDE1OTIwMTgwNDE4XzE1MjQwMzAxNTkyMDE4MDQxOF9heg==&hUser=fhabellajr&hUserRefId=116&hCompanyID=2&hBranchID=1&hsysgrp=&hucode=COMPEMP&hUserGroup=COMPEMP&ccode=PCC&hEmpRefId=116&h=Secret&loginT=2018-04-18%2001:42:39%20PM&file=scrnLogOut&id=scrnLogOut&auth=ae687cc5294103cd887d1e60b0cdcac4d03f2246
04182018 01:47:57 PM->URL:/HRISDEV/hris/min/e2e/resources/views/pages/GlobalCaller.e2e.php?hSess=MTUyNDAzMDQ3NzIwMTgwNDE4XzE1MjQwMzA0NzcyMDE4MDQxOF9heg==&hUser=fhabellajr&hUserRefId=116&hCompanyID=2&hBranchID=1&hsysgrp=&hucode=COMPEMP&hUserGroup=COMPEMP&ccode=PCC&hEmpRefId=116&h=Secret&loginT=2018-04-18%2001:47:57%20PM&file=scrnWelcome&auth=init
04182018 01:48:02 PM->URL:/HRISDEV/hris/min/e2e/resources/views/pages/GlobalCaller.e2e.php?hSess=MTUyNDAzMDQ3NzIwMTgwNDE4XzE1MjQwMzA0NzcyMDE4MDQxOF9heg==&hUser=fhabellajr&hUserRefId=116&hCompanyID=2&hBranchID=1&hsysgrp=&hucode=COMPEMP&hUserGroup=COMPEMP&ccode=PCC&hEmpRefId=116&h=Secret&loginT=2018-04-18%2001:47:57%20PM&file=scrnWelcome&auth=init
04182018 01:48:30 PM->URL:/HRISDEV/hris/min/e2e/resources/views/pages/GlobalCaller.e2e.php?hSess=MTUyNDAzMDQ3NzIwMTgwNDE4XzE1MjQwMzA0NzcyMDE4MDQxOF9heg==&hUser=fhabellajr&hUserRefId=116&hCompanyID=2&hBranchID=1&hsysgrp=&hucode=COMPEMP&hUserGroup=COMPEMP&ccode=PCC&hEmpRefId=116&h=Secret&loginT=2018-04-18%2001:47:57%20PM&file=scrnLogOut&id=scrnLogOut&auth=93c762e73fdc98429a13bdf97914d62c1cd615d1
04182018 02:12:27 PM->URL:/HRISDEV/hris/min/e2e/resources/views/pages/GlobalCaller.e2e.php?hSess=MTUyNDAzMTk0NjIwMTgwNDE4XzE1MjQwMzE5NDYyMDE4MDQxOF9heg==&hUser=fhabellajr&hUserRefId=116&hCompanyID=2&hBranchID=1&hsysgrp=&hucode=COMPEMP&hUserGroup=COMPEMP&ccode=PCC&hEmpRefId=116&h=Secret&loginT=2018-04-18%2002:12:26%20PM&file=scrnWelcome&auth=init
04182018 02:12:30 PM->URL:/HRISDEV/hris/min/e2e/resources/views/pages/GlobalCaller.e2e.php?hSess=MTUyNDAzMTk0NjIwMTgwNDE4XzE1MjQwMzE5NDYyMDE4MDQxOF9heg==&hUser=fhabellajr&hUserRefId=116&hCompanyID=2&hBranchID=1&hsysgrp=&hucode=COMPEMP&hUserGroup=COMPEMP&ccode=PCC&hEmpRefId=116&h=Secret&loginT=2018-04-18%2002:12:26%20PM&file=scrn201File&paramTitle=201%20File&hTable=Employees&auth=7f053c5e625bf90b1d562a4210d6932fa116b38c
04182018 03:07:56 PM->URL:/HRISDEV/hris/min/e2e/resources/views/pages/GlobalCaller.e2e.php?hSess=MTUyNDAzMTk0NjIwMTgwNDE4XzE1MjQwMzE5NDYyMDE4MDQxOF9heg==&hUser=fhabellajr&hUserRefId=116&hCompanyID=2&hBranchID=1&hsysgrp=&hucode=COMPEMP&hUserGroup=COMPEMP&ccode=PCC&hEmpRefId=116&h=Secret&loginT=2018-04-18%2002:12:26%20PM&file=scrn201File&paramTitle=201%20File&hTable=Employees&auth=7f053c5e625bf90b1d562a4210d6932fa116b38c
04182018 03:07:59 PM->URL:/HRISDEV/hris/min/e2e/resources/views/pages/GlobalCaller.e2e.php?hSess=MTUyNDAzMTk0NjIwMTgwNDE4XzE1MjQwMzE5NDYyMDE4MDQxOF9heg==&hUser=fhabellajr&hUserRefId=116&hCompanyID=2&hBranchID=1&hsysgrp=&hucode=COMPEMP&hUserGroup=COMPEMP&ccode=PCC&hEmpRefId=116&h=Secret&loginT=2018-04-18%2002:12:26%20PM&file=scrnWelcome&id=mExitModule&auth=a3a697574c0a2274d26b581c0d5112b1c047f9eb
04182018 03:08:37 PM->URL:/HRISDEV/hris/min/e2e/resources/views/pages/GlobalCaller.e2e.php?hSess=MTUyNDAzMTk0NjIwMTgwNDE4XzE1MjQwMzE5NDYyMDE4MDQxOF9heg==&hUser=fhabellajr&hUserRefId=116&hCompanyID=2&hBranchID=1&hsysgrp=&hucode=COMPEMP&hUserGroup=COMPEMP&ccode=PCC&hEmpRefId=116&h=Secret&loginT=2018-04-18%2002:12:26%20PM&file=scrnWelcome&id=mExitModule&auth=a3a697574c0a2274d26b581c0d5112b1c047f9eb
04182018 03:08:40 PM->URL:/HRISDEV/hris/min/e2e/resources/views/pages/GlobalCaller.e2e.php?hSess=MTUyNDAzMTk0NjIwMTgwNDE4XzE1MjQwMzE5NDYyMDE4MDQxOF9heg==&hUser=fhabellajr&hUserRefId=116&hCompanyID=2&hBranchID=1&hsysgrp=&hucode=COMPEMP&hUserGroup=COMPEMP&ccode=PCC&hEmpRefId=116&h=Secret&loginT=2018-04-18%2002:12:26%20PM&file=scrn201File&paramTitle=201%20File&hTable=Employees&auth=51708edbfe5a62f0283e446486b270eb544fdd34
04182018 03:08:44 PM->URL:/HRISDEV/hris/min/e2e/resources/views/pages/GlobalCaller.e2e.php?hSess=MTUyNDAzMTk0NjIwMTgwNDE4XzE1MjQwMzE5NDYyMDE4MDQxOF9heg==&hUser=fhabellajr&hUserRefId=116&hCompanyID=2&hBranchID=1&hsysgrp=&hucode=COMPEMP&hUserGroup=COMPEMP&ccode=PCC&hEmpRefId=116&h=Secret&loginT=2018-04-18%2002:12:26%20PM&file=scrnLogOut&id=mLogOut&auth=37d0270b55dea92a8d9749cac6f76f46193ff42b
04182018 03:10:14 PM->URL:/HRISDEV/hris/min/e2e/resources/views/pages/GlobalCaller.e2e.php?hSess=MTUyNDAzNTQxNDIwMTgwNDE4XzE1MjQwMzU0MTQyMDE4MDQxOF9heg==&hUser=fhabellajr&hUserRefId=116&hCompanyID=2&hBranchID=1&hsysgrp=&hucode=COMPEMP&hUserGroup=COMPEMP&ccode=PCC&hEmpRefId=116&h=Secret&loginT=2018-04-18%2003:10:14%20PM&file=scrnWelcome&auth=init
04182018 03:10:20 PM->URL:/HRISDEV/hris/min/e2e/resources/views/pages/GlobalCaller.e2e.php?hSess=MTUyNDAzNTQxNDIwMTgwNDE4XzE1MjQwMzU0MTQyMDE4MDQxOF9heg==&hUser=fhabellajr&hUserRefId=116&hCompanyID=2&hBranchID=1&hsysgrp=&hucode=COMPEMP&hUserGroup=COMPEMP&ccode=PCC&hEmpRefId=116&h=Secret&loginT=2018-04-18%2003:10:14%20PM&file=scrn201File&paramTitle=201%20File&hTable=Employees&auth=97ab1c85088312e46f26ff2487197681ce455b8a
04182018 03:11:15 PM->URL:/HRISDEV/hris/min/e2e/resources/views/pages/GlobalCaller.e2e.php?hSess=MTUyNDAzNTQxNDIwMTgwNDE4XzE1MjQwMzU0MTQyMDE4MDQxOF9heg==&hUser=fhabellajr&hUserRefId=116&hCompanyID=2&hBranchID=1&hsysgrp=&hucode=COMPEMP&hUserGroup=COMPEMP&ccode=PCC&hEmpRefId=116&h=Secret&loginT=2018-04-18%2003:10:14%20PM&file=scrnLogOut&id=mLogOut&auth=f0289fc339843e0afcd425785a19b2fdf09b30ff
